{
	"0": {
		"index":"0",
		"prime":"2",
		"letter":"F",
		"rune": "ᚠ"
	},
	"1": {
		"index":"1",
		"prime":"3",
		"letter":"U",
		"rune": "ᚢ"
	},
	"2": {
		"index":"2",
		"prime":"5",
		"letter":"TH",
		"rune": "ᚦ"
	},
	"3": {
		"index":"3",
		"prime":"7",
		"letter":"O",
		"rune": "ᚩ"
	},		
	"4": {
		"index":"4",
		"prime":"11",
		"letter":"R",
		"rune": "ᚱ"
	},
	"5": {
		"index":"5",
		"prime":"13",
		"letter":"C",
		"alt_letter":"K",
		"rune": "ᚳ",
		"notes": "Does not occur in single rune words at all"
	},
	"6": {
		"index":"6",
		"prime":"17",
		"letter":"G",
		"rune": "ᚷ"
	},
	"7": {
		"index":"7",
		"prime":"19",
		"letter":"W",
		"rune": "ᚹ"
	},
	"8": {
		"index":"8",
		"prime":"23",
		"letter":"H",
		"rune": "ᚻ"
	},		
	"9": {
		"index":"9",
		"prime":"29",
		"letter":"N",
		"rune": "ᚾ"
	},		
	"10": {
		"index":"10",
		"prime":"31",
		"letter":"I",
		"rune": "ᛁ"
	},		
	"11": {
		"index":"11",
		"prime":"37",
		"letter":"J",
		"rune": "ᛄ"
	},		
	"12": {
		"index":"12",
		"prime":"41",
		"letter":"EO",
		"rune": "ᛇ"
	},		
	"13": {
		"index":"13",
		"prime":"43",
		"letter":"P",
		"rune": "ᛈ"
	},		
	"14": {
		"index":"14",
		"prime":"47",
		"letter":"X",
		"rune": "ᛉ"
	},		
	"15": {
		"index":"15",
		"prime":"53",
		"letter":"S",
		"alt_letter":"Z",
		"rune": "ᛋ"
	},		
	"16": {
		"index":"16",
		"prime":"59",
		"letter":"T",
		"rune": "ᛏ"
	},		
	"17": {
		"index":"17",
		"prime":"61",
		"letter":"B",
		"rune": "ᛒ"
	},		
	"18": {
		"index":"18",
		"prime":"67",
		"letter":"E",
		"rune": "ᛖ"
	},		
	"19": {
		"index":"19",
		"prime":"71",
		"letter":"M",
		"rune": "ᛗ"
	},		
	"20": {
		"index":"20",
		"prime":"73",
		"letter":"L",
		"rune": "ᛚ"
	},		
	"21": {
		"index":"21",
		"prime":"79",
		"letter":"NG",
		"alt_letter":"ING",
		"rune": "ᛝ"
	},		
	"22": {
		"index":"22",
		"prime":"83",
		"letter":"OE",
		"rune": "ᛟ"
	},		
	"23": {
		"index":"23",
		"prime":"89",
		"letter":"D",
		"rune": "ᛞ"
	},		
	"24": {
		"index":"24",
		"prime":"97",
		"letter":"A",
		"rune": "ᚪ"
	},	
	"25": {
		"index":"25",
		"prime":"101",
		"letter":"AE",
		"rune": "ᚫ"
	},	
	"26": {
		"index":"26",
		"prime":"103",
		"letter":"Y",
		"rune": "ᚣ"
	},	
	"27": {
		"index":"27",
		"prime":"107",
		"letter":"IA",
		"alt_letter":"IO",
		"rune": "ᛡ"
	},	
	"28": {
		"index":"28",
		"prime":"109",
		"letter":"EA",
		"rune": "ᛠ"
	},
    "29":{
    	"index":"29",
        "prime":"1",
        "letter": " ",
        "rune":"-"
    },
    "F": {
    	"index":"0",
		"prime":"2",
		"letter":"F",
		"rune": "ᚠ"
	},
	"U": {
    	"index":"1",
		"prime":"3",
		"letter":"U",
		"rune": "ᚢ"
	},
	"TH": {
    	"index":"2",
		"prime":"5",
		"letter":"TH",
		"rune": "ᚦ"
	},
	"O": {
    	"index":"3",
		"prime":"7",
		"letter":"O",
		"rune": "ᚩ"
	},		
	"R": {
    	"index":"4",
		"prime":"11",
		"letter":"R",
		"rune": "ᚱ"
	},
	"C": {
    	"index":"5",
		"prime":"13",
		"letter":"C",
		"alt_letter":"K",
		"rune": "ᚳ",
		"notes": "Does not occur in single rune words at all"
	},
	"K": {
    	"index":"5",
		"prime":"13",
		"letter":"C",
		"alt_letter":"K",
		"rune": "ᚳ",
		"notes": "Does not occur in single rune words at all"
	},
	"G": {
    	"index":"6",
		"prime":"17",
		"letter":"G",
		"rune": "ᚷ"
	},
	"W": {
    	"index":"7",
		"prime":"19",
		"letter":"W",
		"rune": "ᚹ"
	},
	"H": {
    	"index":"8",
		"prime":"23",
		"letter":"H",
		"rune": "ᚻ"
	},		
	"N": {
    	"index":"9",
		"prime":"29",
		"letter":"N",
		"rune": "ᚾ"
	},		
	"I": {
    	"index":"10",
		"prime":"31",
		"letter":"I",
		"rune": "ᛁ"
	},		
	"J": {
    	"index":"11",
		"prime":"37",
		"letter":"J",
		"rune": "ᛄ"
	},		
	"EO": {
    	"index":"12",
		"prime":"41",
		"letter":"EO",
		"rune": "ᛇ"
	},		
	"P": {
    	"index":"13",
		"prime":"43",
		"letter":"P",
		"rune": "ᛈ"
	},		
	"X": {
    	"index":"14",
		"prime":"47",
		"letter":"X",
		"rune": "ᛉ"
	},		
	"S": {
    	"index":"15",
		"prime":"53",
		"letter":"S",
		"alt_letter":"Z",
		"rune": "ᛋ"
	},
	"Z": {
    	"index":"15",
		"prime":"53",
		"letter":"S",
		"alt_letter":"Z",
		"rune": "ᛋ"
	},		
	"T": {
    	"index":"16",
		"prime":"59",
		"letter":"T",
		"rune": "ᛏ"
	},		
	"B": {
    	"index":"17",
		"prime":"61",
		"letter":"B",
		"rune": "ᛒ"
	},		
	"E": {
    	"index":"18",
		"prime":"67",
		"letter":"E",
		"rune": "ᛖ"
	},		
	"M": {
    	"index":"19",
		"prime":"71",
		"letter":"M",
		"rune": "ᛗ"
	},		
	"L": {
    	"index":"20",
		"prime":"73",
		"letter":"L",
		"rune": "ᛚ"
	},		
	"NG": {
    	"index":"21",
		"prime":"79",
		"letter":"NG",
		"alt_letter":"ING",
		"rune": "ᛝ"
	},
	"ING": {
    	"index":"21",
		"prime":"79",
		"letter":"NG",
		"alt_letter":"ING",
		"rune": "ᛝ"
	},		
	"OE": {
    	"index":"22",
		"prime":"83",
		"letter":"OE",
		"rune": "ᛟ"
	},		
	"D": {
    	"index":"23",
		"prime":"89",
		"letter":"D",
		"rune": "ᛞ"
	},		
	"A": {
    	"index":"24",
		"prime":"97",
		"letter":"A",
		"rune": "ᚪ"
	},	
	"AE": {
    	"index":"25",
		"prime":"101",
		"letter":"AE",
		"rune": "ᚫ"
	},	
	"Y": {
    	"index":"26",
		"prime":"103",
		"letter":"Y",
		"rune": "ᚣ"
	},	
	"IA": {
    	"index":"27",
		"prime":"107",
		"letter":"IA",
		"alt_letter":"IO",
		"rune": "ᛡ"
	},	
	"IO": {
    	"index":"27",
		"prime":"107",
		"letter":"IA",
		"alt_letter":"IO",
		"rune": "ᛡ"
	},	
	"EA": {
		"index":"28",
		"prime":"109",
		"letter":"EA",
		"rune": "ᛠ"
	},
    " ":{
        "prime":"1",
        "letter": " ",
        "rune":"-"
    },
    "ᚠ": {
    	"index":"0",
		"prime":"2",
		"letter":"F",
		"rune": "ᚠ"
	},
	"ᚢ": {
    	"index":"1",
		"prime":"3",
		"letter":"U",
		"rune": "ᚢ"
	},
	"ᚦ": {
    	"index":"2",
		"prime":"5",
		"letter":"TH",
		"rune": "ᚦ"
	},
	"ᚩ": {
    	"index":"3",
		"prime":"7",
		"letter":"O",
		"rune": "ᚩ"
	},		
	"ᚱ": {
    	"index":"4",
		"prime":"11",
		"letter":"R",
		"rune": "ᚱ"
	},
	"ᚳ": {
    	"index":"5",
		"prime":"13",
		"letter":"C",
		"alt_letter":"K",
		"rune": "ᚳ",
		"notes": "Does not occur in single rune words at all"
	},
	"ᚷ": {
    	"index":"6",
		"prime":"17",
		"letter":"G",
		"rune": "ᚷ"
	},
	"ᚹ": {
    	"index":"7",
		"prime":"19",
		"letter":"W",
		"rune": "ᚹ"
	},
	"ᚻ": {
    	"index":"8",
		"prime":"23",
		"letter":"H",
		"rune": "ᚻ"
	},		
	"ᚾ": {
    	"index":"9",
		"prime":"29",
		"letter":"N",
		"rune": "ᚾ"
	},		
	"ᛁ": {
    	"index":"10",
		"prime":"31",
		"letter":"I",
		"rune": "ᛁ"
	},		
	"ᛄ": {
    	"index":"11",
		"prime":"37",
		"letter":"J",
		"rune": "ᛄ"
	},		
	"ᛇ": {
    	"index":"12",
		"prime":"41",
		"letter":"EO",
		"rune": "ᛇ"
	},		
	"ᛈ": {
    	"index":"13",
		"prime":"43",
		"letter":"P",
		"rune": "ᛈ"
	},		
	"ᛉ": {
    	"index":"14",
		"prime":"47",
		"letter":"X",
		"rune": "ᛉ"
	},		
	"ᛋ": {
    	"index":"15",
		"prime":"53",
		"letter":"S",
		"alt_letter":"Z",
		"rune": "ᛋ"
	},	
	"ᛏ": {
    	"index":"16",
		"prime":"59",
		"letter":"T",
		"rune": "ᛏ"
	},		
	"ᛒ": {
    	"index":"17",
		"prime":"61",
		"letter":"B",
		"rune": "ᛒ"
	},		
	"ᛖ": {
    	"index":"18",
		"prime":"67",
		"letter":"E",
		"rune": "ᛖ"
	},		
	"ᛗ": {
    	"index":"19",
		"prime":"71",
		"letter":"M",
		"rune": "ᛗ"
	},		
	"ᛚ": {
    	"index":"20",
		"prime":"73",
		"letter":"L",
		"rune": "ᛚ"
	},		
	"ᛝ": {
    	"index":"21",
		"prime":"79",
		"letter":"NG",
		"alt_letter":"ING",
		"rune": "ᛝ"
	},	
	"ᛟ": {
    	"index":"22",
		"prime":"83",
		"letter":"OE",
		"rune": "ᛟ"
	},		
	"ᛞ": {
    	"index":"23",
		"prime":"89",
		"letter":"D",
		"rune": "ᛞ"
	},		
	"ᚪ": {
    	"index":"24",
		"prime":"97",
		"letter":"A",
		"rune": "ᚪ"
	},	
	"ᚫ": {
    	"index":"25",
		"prime":"101",
		"letter":"AE",
		"rune": "ᚫ"
	},	
	"ᚣ": {
    	"index":"26",
		"prime":"103",
		"letter":"Y",
		"rune": "ᚣ"
	},	
	"ᛡ": {
    	"index":"27",
		"prime":"107",
		"letter":"IA",
		"alt_letter":"IO",
		"rune": "ᛡ"
	},	
	"ᛠ": {
		"index":"28",
		"prime":"109",
		"letter":"EA",
		"rune": "ᛠ"
	},
    "-":{
    	"index":"29",
        "prime":"1",
        "letter": " ",
        "rune":"-"
    }
}
