{
	"LP": "2",
	"page_number": 7,
	"section": "1",
	"artwork": ["vines", "dots","3 dots", "1 dot", "5 large dots", "constellation"],
	"ciphertext": [["8 21 - 20 2 17 - 15 5 1 5 3 27 \" - 20 5 11 - 14 24 9 12 14 "],["28 ",
					"19 13 1 - 19 0 20 28 21 - 17 14 10 - 20 2 4 - 28 27 10 5 - 3 14 18 ",
					"23 27 - 16 15 19 28 11 13 - 28 22 - 27 25 2 7 8 13 12 24 6 13 8 ",
					"28 - 5 20 28 13 - 27 26 9 10 - 20 27 10 5 - 25 12 9 - 25 5 27 4 27 20 ",
					"23 - 17 22 21 27 - 14 19 21 - 5 8 22 28 9 13 5 2 - 10 12 2 - 12 1 3 ",
					"- 2 13 24 - 27 20 22 7 27 13 - 11 19 - 6 17 13 15 9 12 - 16 3 6 1 9 25 ",
					"18 - 9 26 10 18 - 23 21 - 23 21 - 20 1 20 14 - 24 9 21 - 12 24 11 - 8 - 23 ",
					"7 13 25 7 25 - 12 10 20 21 - 2 9 5"],["17 10 16 - 28 5 3 12 18 21 - 5 8 ",
					"22 8 25 11 - 22 14 - 10 5 18 16 15 7 18 9 27 26 11 19 - 18 5 24"],
					["23 3 - 22 16 2 25"],["5 7 11 - 14 28 - 6 28 19"]],
	"continues": "none"
}