{
	"LP": "2",
	"page_number": 22,
	"section": "3",
	"artwork": ["5 dots"],
	"ciphertext": [["21 19 - 10 6 - 11 6 - 5 3 2 18 2 11 - 26 0 - 2 5 11 27 18 1 - 14 11 ",
					"5 8 11 4 11 - 24 8 9 2 - 20 6 - 4 2"],["17 24 3 18 1 27 11 7 16 4 7 ",
					"22 - 2 5 19 2 0 25 8 - 27 0 28 26 24 2 20 16 17 1 21 - 18 15 19 4 - ",
					"24 7 17 - 7 17 19 4 9 19 8 19 10 9 24 23 - \" 27 18 3 - 9 7 27 - 1 11 ",
					"2 28 - 20 5 6 20 12 - 22 28 28 24 \""],["12 14 26 24 - 6 16 3 - 18 ",
					"7 17 13 6 21 17"],["27 2 0 15 9 - 17 2 0 - 12 21 28 - 0 9 14"]],
	"continues": "none"
}