{
	"LP": "2",
	"page_number": 40,
	"section": "7",
	"artwork": ["vines with 3 and 5 berries"],
	"ciphertext": [["0 9 19 - 26 6 23 25 8 - 24 13 14 26 8 - 12 28 3 18 - 16 21 ",
					"28 - 20 10 16 2 0 - 19 24 5 18"],["23 5 - 16 4 22 6 28 9 ",
					"25 17 1 18 17 1 - 2 0 22 - 6 15 22 - 10 13 - 22 14 15 17 - 7 11 17 ",
					"26 19 1 28 - 4 10 1 22 11 10 - 19 18 25 - 4 15 14 21"],["\" 28 13 20 - ",
					"23 3 20 10 14 28 21 18 4 \" - 9 13 18 7 27 - 9 11 16 26"],["15 3 15 ",
					"16 21 - 1 9 12 24 - 18 16 24 11 5 26 - 22 17 - 20 15 - 17 23 11 - 10 21 26 18 ",
					"5 - 11 8 20 26 - 6 25 20 23 - 20 25 20 2 14 - 20 - 18 14 3 14 10 5 1 19 ",
					"9 1 - 3 9 12 - 8 27 20 12 3 25 24 - 3 22 3 - 26 4 - 18 0 1"],["10 8 - 22 20 ",
					"9 16 - \" 0 23 4 28 6 - 13 3 12 3 19 28 17 - 11 27 - 15 19 0 - 16 ",
					"0 25 3 - 22 5 20 23 27 20 - 3 5 21 1 - 13 7 16 - 6 5 15 - 1 22 6 2 - ",
					"0 14 0 16 - 5 15 14 22 - 6 0 14 9 23 - 17 16 28 27 \""],["13 27 "]],
	"continues": "41"
}