{
    "aaaaa":"F",
    "aaaab":"U",
    "aaaba":"TH",
    "aaabb":"O",
    "aabaa":"R",
    "aabab":"C/K",
    "aabba":"G",
    "aabbb":"W",
    "abaaa":"H",
    "abaab":"N",
    "ababa":"I",
    "ababb":"J",
    "abbaa":"EO",
    "abbab":"P",
    "abbba":"X",
    "abbbb":"S/Z",
    "baaaa":"T",
    "baaab":"B",
    "baaba":"E",
    "baabb":"M",
    "babaa":"L",
    "babab":"NG",
    "babba":"OE",
    "babbb":"D",
    "bbaaa":"A",
    "bbaab":"AE",
    "bbaba":"Y",
    "bbabb":"IA",
    "bbbaa":"EA"
}
